{
  "recommendation_units": [
    {
      "id": 2,
      "name": "ディオール バックステージ アイ パレット",
      "image_urls": [
        "static/productDetail-sample.png",
        "static/productDetail-sample.png",
        "static/productDetail-sample.png",
        "static/productDetail-sample.png",
        "static/productDetail-sample.png",
        "static/productDetail-sample.png",
        "static/productDetail-sample.png"
      ],
      "stock": 14,
      "size": "S",
      "price": 1000,
      "original_price": 10000,
      "discount_rate": 90,
      "variety": "ピンク",
      "variety_kind": "color",
      "product": {
        "id": 6,
        "name": "水",
        "image_urls": [
          "static/productDetail-sample.png",
          "static/productDetail-sample.png",
          "static/productDetail-sample.png",
          "static/productDetail-sample.png",
          "static/productDetail-sample.png",
          "static/productDetail-sample.png",
          "static/productDetail-sample.png"
        ],
        "description": "豊かな自然から生まれた、まろやかで飲みやすい硬度49㎎/Lの軟水です。飲料水としてだけでなく、水出しやお料理などにお使いいただいても、素材の味を邪魔しません。毎日の生活に欠かせないお水、Happy Belly(ハッピーベリー)岐阜・美濃 天然水を是非お試しください。",
        "has_size": true,
        "has_variety": true
      }
    },
    {
      "id": 3,
      "name": "ディオール バックステージ アイ パレット",
      "image_urls": [
        "static/productDetail-sample.png",
        "static/productDetail-sample.png",
        "static/productDetail-sample.png",
        "static/productDetail-sample.png",
        "static/productDetail-sample.png",
        "static/productDetail-sample.png",
        "static/productDetail-sample.png"
      ],
      "stock": 14,
      "size": "S",
      "price": 1000,
      "original_price": 10000,
      "discount_rate": 90,
      "variety": "ピンク",
      "variety_kind": "color",
      "product": {
        "id": 5,
        "name": "水",
        "image_urls": [
          "static/productDetail-sample.png",
          "static/productDetail-sample.png",
          "static/productDetail-sample.png",
          "static/productDetail-sample.png",
          "static/productDetail-sample.png",
          "static/productDetail-sample.png",
          "static/productDetail-sample.png"
        ],
        "description": "豊かな自然から生まれた、まろやかで飲みやすい硬度49㎎/Lの軟水です。飲料水としてだけでなく、水出しやお料理などにお使いいただいても、素材の味を邪魔しません。毎日の生活に欠かせないお水、Happy Belly(ハッピーベリー)岐阜・美濃 天然水を是非お試しください。",
        "has_size": true,
        "has_variety": true
      }
    },
    {
      "id": 4,
      "name": "ディオール バックステージ アイ パレット",
      "image_urls": [
        "static/productDetail-sample.png",
        "static/productDetail-sample.png",
        "static/productDetail-sample.png",
        "static/productDetail-sample.png",
        "static/productDetail-sample.png",
        "static/productDetail-sample.png",
        "static/productDetail-sample.png"
      ],
      "stock": 14,
      "size": "S",
      "price": 1000,
      "original_price": 10000,
      "discount_rate": 90,
      "variety": "ピンク",
      "variety_kind": "color",
      "product": {
        "id": 4,
        "name": "水",
        "image_urls": [
          "static/productDetail-sample.png",
          "static/productDetail-sample.png",
          "static/productDetail-sample.png",
          "static/productDetail-sample.png",
          "static/productDetail-sample.png",
          "static/productDetail-sample.png",
          "static/productDetail-sample.png"
        ],
        "description": "豊かな自然から生まれた、まろやかで飲みやすい硬度49㎎/Lの軟水です。飲料水としてだけでなく、水出しやお料理などにお使いいただいても、素材の味を邪魔しません。毎日の生活に欠かせないお水、Happy Belly(ハッピーベリー)岐阜・美濃 天然水を是非お試しください。",
        "has_size": true,
        "has_variety": true
      }
    },
    {
      "id": 5,
      "name": "ディオール バックステージ アイ パレット",
      "image_urls": [
        "static/productDetail-sample.png",
        "static/productDetail-sample.png",
        "static/productDetail-sample.png",
        "static/productDetail-sample.png",
        "static/productDetail-sample.png",
        "static/productDetail-sample.png",
        "static/productDetail-sample.png"
      ],
      "stock": 14,
      "size": "S",
      "price": 1000,
      "original_price": 10000,
      "discount_rate": 90,
      "variety": "ピンク",
      "variety_kind": "color",
      "product": {
        "id": 3,
        "name": "水",
        "image_urls": [
          "static/productDetail-sample.png",
          "static/productDetail-sample.png",
          "static/productDetail-sample.png",
          "static/productDetail-sample.png",
          "static/productDetail-sample.png",
          "static/productDetail-sample.png",
          "static/productDetail-sample.png"
        ],
        "description": "豊かな自然から生まれた、まろやかで飲みやすい硬度49㎎/Lの軟水です。飲料水としてだけでなく、水出しやお料理などにお使いいただいても、素材の味を邪魔しません。毎日の生活に欠かせないお水、Happy Belly(ハッピーベリー)岐阜・美濃 天然水を是非お試しください。",
        "has_size": true,
        "has_variety": true
      }
    },
    {
      "id": 6,
      "name": "ディオール バックステージ アイ パレット",
      "image_urls": [
        "static/productDetail-sample.png",
        "static/productDetail-sample.png",
        "static/productDetail-sample.png",
        "static/productDetail-sample.png",
        "static/productDetail-sample.png",
        "static/productDetail-sample.png",
        "static/productDetail-sample.png"
      ],
      "stock": 14,
      "size": "S",
      "price": 1000,
      "original_price": 10000,
      "discount_rate": 90,
      "variety": "ピンク",
      "variety_kind": "color",
      "product": {
        "id": 2,
        "name": "水",
        "image_urls": [
          "static/productDetail-sample.png",
          "static/productDetail-sample.png",
          "static/productDetail-sample.png",
          "static/productDetail-sample.png",
          "static/productDetail-sample.png",
          "static/productDetail-sample.png",
          "static/productDetail-sample.png"
        ],
        "description": "豊かな自然から生まれた、まろやかで飲みやすい硬度49㎎/Lの軟水です。飲料水としてだけでなく、水出しやお料理などにお使いいただいても、素材の味を邪魔しません。毎日の生活に欠かせないお水、Happy Belly(ハッピーベリー)岐阜・美濃 天然水を是非お試しください。",
        "has_size": true,
        "has_variety": true
      }
    }
  ],
  "pagenation": {
    "total_count": 1000,
    "limit_value": 50,
    "total_pages": 20,
    "current_page": 1,
    "previous_page": null,
    "next_page": 2
  }
}
